mp01 – STA 9750 2024 Submission Material
…
6.2. Which transit system (agency and mode) had the highest farebox recovery, defined as the highest

Agency: Butler County Regional Transit Authority, mode: commuter bus

highest_farebox_recovery <- USAGE_AND_FINANCIALS |>
  mutate(farebox_recovery = `Total Fares` / Expenses) |>
  arrange(desc(farebox_recovery)) |>  
  slice_max(farebox_recovery, n = 1)
print(highest_farebox_recovery)

# A tibble: 115 × 11
   `NTD ID` month      Agency         metro_area Mode    UPT   VRM `Agency Name`
      <dbl> <date>     <chr>          <chr>      <chr> <dbl> <dbl> <chr>        
 1    50157 2012-01-01 Butler County… Cincinnat… Comm…   947  9182 Butler Count…
 2    50157 2012-02-01 Butler County… Cincinnat… Comm…   918 10855 Butler Count…
 3    50157 2012-03-01 Butler County… Cincinnat… Comm…   936 11182 Butler Count…
 4    50157 2012-04-01 Butler County… Cincinnat… Comm…  1029 11031 Butler Count…
 5    50157 2012-05-01 Butler County… Cincinnat… Comm…   901  9555 Butler Count…
 6    50157 2012-06-01 Butler County… Cincinnat… Comm…   844 10816 Butler Count…
 7    50157 2012-07-01 Butler County… Cincinnat… Comm…   810 10672 Butler Count…
 8    50157 2012-08-01 Butler County… Cincinnat… Comm…  3833 15196 Butler Count…
 9    50157 2012-09-01 Butler County… Cincinnat… Comm…  5831 17317 Butler Count…
10    50157 2012-10-01 Butler County… Cincinnat… Comm…  6562 20112 Butler Count…
# ℹ 105 more rows
# ℹ 3 more variables: `Total Fares` <dbl>, Expenses <dbl>,
#   farebox_recovery <dbl>
…
