mp03 – STA 9750 2024 Submission Material
…
# Display the elections where the outcome would differ
election_outcomes |>
    select(year, district, candidate, major_party_votes, total_votes, winner_major_party, winner_total_votes, different_outcome)

# A tibble: 44 × 8
# Groups:   year, district [22]
    year district candidate     major_party_votes total_votes winner_major_party
   <int>    <int> <chr>                     <int>       <int> <chr>             
 1  1976       29 EDWARD W PAT…             95361      100663 JOSEPH A MARTINO  
 2  1976       29 JOSEPH A MAR…             96476       96476 JOSEPH A MARTINO  
 3  1980        3 GREGORY W CA…             74868       87952 JEROME A AMBRO JR 
 4  1980        3 JEROME A AMB…             75389       83389 JEROME A AMBRO JR 
 5  1980        6 JOHN LEBOUTI…             71838       89762 LESTER L WOLFF    
 6  1980        6 LESTER L WOL…             74319       80209 LESTER L WOLFF    
 7  1984       20 JOSEPH J DIO…             93518      106958 OREN J TEICHER    
 8  1984       20 OREN J TEICH…            102842      102842 OREN J TEICHER    
 9  1986       27 GEORGE C WOR…             77175       83430 ROSEMARY S POOLER 
10  1986       27 ROSEMARY S P…             81133       82491 ROSEMARY S POOLER 
# ℹ 34 more rows
# ℹ 2 more variables: winner_total_votes <chr>, different_outcome <lgl>
…
